{
	"coming": [
		{
			"id": 1203134,
			"img": "http://p0.meituan.net/w.h/movie/ae98a8b942495de97ddde12170f9b38d92428.jpg",
			"wish": 315126,
			"wishst": 0,
			"nm": "摸金校尉之九幽将军",
			"comingTitle": "10月1日 周二"
		}, {
			"id": 1197417,
			"img": "http://p0.meituan.net/w.h/movie/ebcc1a8e22cecd24bcd436d6a8afcc4c2917624.jpg",
			"wish": 213576,
			"wishst": 0,
			"nm": "使徒行者2：谍影行动",
			"comingTitle": "8月7日 周三"
		}, {
			"id": 1215605,
			"img": "http://p1.meituan.net/w.h/movie/648bbced128324a4b4ccf7db6c564a251744344.jpg",
			"wish": 163082,
			"wishst": 0,
			"nm": "速度与激情：特别行动",
			"comingTitle": "8月23日 周五"
		}, {
			"id": 1207237,
			"img": "http://p1.meituan.net/w.h/movie/74368fecd16f25a7e632e13447f217c0298371.jpg",
			"wish": 123921,
			"wishst": 0,
			"nm": "沉默的证人",
			"comingTitle": "8月2日 周五"
		}, {
			"id": 1209269,
			"img": "http://p0.meituan.net/w.h/movie/b73baf844cbbc2f434f5fcd5d046679d936451.jpg",
			"wish": 122896,
			"wishst": 0,
			"nm": "全职高手之巅峰荣耀",
			"comingTitle": "8月16日 周五"
		}, {
			"id": 342903,
			"img": "http://p1.meituan.net/w.h/movie/bdf410afd0cae110baca2a77415389751024783.jpg",
			"wish": 95506,
			"wishst": 0,
			"nm": "上海堡垒",
			"comingTitle": "8月9日 周五"
		}, {
			"id": 341379,
			"img": "http://p1.meituan.net/w.h/movie/92bdf5e3faa703a819a1e8f11cf6c0d81756031.jpg",
			"wish": 76553,
			"wishst": 0,
			"nm": "保持沉默",
			"comingTitle": "8月23日 周五"
		}, {
			"id": 1205779,
			"img": "http://p0.meituan.net/w.h/movie/29d4b848f1835efaabfa8ee39c959b731433302.jpg",
			"wish": 75904,
			"wishst": 0,
			"nm": "回到过去拥抱你",
			"comingTitle": "7月26日 周五"
		}, {
			"id": 1250700,
			"img": "http://p0.meituan.net/w.h/movie/4c01895cfd53e82f7c3048c407974a6b4739229.jpg",
			"wish": 72933,
			"wishst": 0,
			"nm": "攀登者",
			"comingTitle": "9月30日 周一"
		}, {
			"id": 1211270,
			"img": "http://p0.meituan.net/w.h/movie/005955214d5b3e50c910d7a511b0cb571445301.jpg",
			"wish": 70441,
			"wishst": 0,
			"nm": "哪吒之魔童降世",
			"comingTitle": "7月26日 周五"
		}
	],
	"paging": {
		"hasMore": true,
		"limit": 10,
		"offset": 0,
		"total": 77
	}
}